{
    "/api/*": {
        "target": "http://pretty.iniapps.com",
        "secure": "false",
        "logLevel": "debug",
        "pathRewrite": {
            "^/api" : "http://pretty.iniapps.com/api"
        },
        "changeOrigin": true
    }
}
